{"results":[{"popularity":318.742,"vote_count":413,"video":false,"poster_path":"\/s8qRIwA0zDPbnRekeU0rDwWE7q7.jpg","id":454626,"adult":false,"backdrop_path":"\/qonBhlm0UjuKX2sH7e73pnG0454.jpg","original_language":"en","original_title":"Sonic the Hedgehog","genre_ids":[28,35,878,10751],"title":"Sonic the Hedgehog","vote_average":7,"overview":"Based on the global blockbuster videogame franchise from Sega, Sonic the Hedgehog tells the story of the world’s speediest hedgehog as he embraces his new home on Earth. In this live-action adventure comedy, Sonic and his new best friend team up to defend the planet from the evil genius Dr. Robotnik and his plans for world domination.","release_date":"2020-02-12"},{"popularity":262.804,"vote_count":4440,"video":false,"poster_path":"\/7IiTTgloJzvGI1TAYymCfbfl3vT.jpg","id":496243,"adult":false,"backdrop_path":"\/TU9NIjwzjoKPwQHoHshkFcQUCG.jpg","original_language":"ko","original_title":"기생충","genre_ids":[35,18,53],"title":"Parasite","vote_average":8.6,"overview":"All unemployed, Ki-taek's family takes peculiar interest in the wealthy and glamorous Parks for their livelihood until they get entangled in an unexpected incident.","release_date":"2019-05-30"},{"popularity":158.233,"vote_count":62,"video":false,"poster_path":"\/33VdppGbeNxICrFUtW2WpGHvfYc.jpg","id":481848,"adult":false,"backdrop_path":"\/yFRpUmsreYO5Bc0HVBTsJsHIIox.jpg","original_language":"en","original_title":"The Call of the Wild","genre_ids":[12,18,10751],"title":"The Call of the Wild","vote_average":6,"overview":"A sled dog struggles for survival in the wilds of the Yukon.","release_date":"2020-02-19"},{"popularity":92.315,"vote_count":312,"video":false,"poster_path":"\/b5cz6BoyHrgBnhfDHOW5hXRWbln.jpg","id":449924,"adult":false,"backdrop_path":"\/ekP6EVxL81lZ4ivcqPsoZ72rY0h.jpg","original_language":"cn","original_title":"葉問4","genre_ids":[28,18,36],"title":"Ip Man 4: The Finale","vote_average":6,"overview":"Following the death of his wife, Ip Man travels to San Francisco to ease tensions between the local kung fu masters and his star student, Bruce Lee, while searching for a better future for his son.","release_date":"2019-12-20"},{"popularity":86.002,"vote_count":470,"video":false,"poster_path":"\/5eNiYMu2GXCtNlDwMcJqKGVwyoX.jpg","id":448119,"adult":false,"backdrop_path":"\/lG802rseTZcN9mtLsQPVfApEVzM.jpg","original_language":"en","original_title":"Dolittle","genre_ids":[12,35,14,10751],"title":"Dolittle","vote_average":6.4,"overview":"After losing his wife seven years earlier, the eccentric Dr. John Dolittle, famed doctor and veterinarian of Queen Victoria’s England, hermits himself away behind the high walls of Dolittle Manor with only his menagerie of exotic animals for company. But when the young queen falls gravely ill, a reluctant Dolittle is forced to set sail on an epic adventure to a mythical island in search of a cure, regaining his wit and courage as he crosses old adversaries and discovers wondrous creatures.","release_date":"2020-01-01"},{"popularity":84.072,"vote_count":2821,"video":false,"poster_path":"\/AuGiPiGMYMkSosOJ3BQjDEAiwtO.jpg","id":530915,"adult":false,"backdrop_path":"\/cqa3sa4c4jevgnEJwq3CMF8UfTG.jpg","original_language":"en","original_title":"1917","genre_ids":[28,18,10752],"title":"1917","vote_average":8,"overview":"At the height of the First World War, two young British soldiers must cross enemy territory and deliver a message that will stop a deadly attack on hundreds of soldiers.","release_date":"2019-12-10"},{"popularity":71.555,"vote_count":135,"video":false,"poster_path":"\/hJ6YEbrjFvToa5c7IiUqILoB6Je.jpg","id":552178,"adult":false,"backdrop_path":"\/4ZSlTfkHtgTTupCaLbseXQQzZha.jpg","original_language":"en","original_title":"Dark Waters","genre_ids":[18],"title":"Dark Waters","vote_average":7.4,"overview":"A tenacious attorney uncovers a dark secret that connects a growing number of unexplained deaths due to one of the world's largest corporations. In the process, he risks everything — his future, his family, and his own life — to expose the truth.","release_date":"2019-11-22"},{"popularity":66.426,"vote_count":9,"video":false,"poster_path":"\/4U7hpTK0XTQBKT5X60bKmJd05ha.jpg","id":570670,"adult":false,"backdrop_path":"\/uZMZyvarQuXLRqf3xdpdMqzdtjb.jpg","original_language":"en","original_title":"The Invisible Man","genre_ids":[27,878,53],"title":"The Invisible Man","vote_average":7.9,"overview":"When Cecilia's abusive ex takes his own life and leaves her his fortune, she suspects his death was a hoax. As a series of coincidences turn lethal, Cecilia works to prove that she is being hunted by someone nobody can see.","release_date":"2020-02-26"},{"popularity":63.021,"vote_count":114,"video":false,"poster_path":"\/yqZdRSC6wfX6AGtBPfGbpvmNKag.jpg","id":539537,"adult":false,"backdrop_path":"\/dzfiE2VHY362dGI62XfZ2iI87CT.jpg","original_language":"en","original_title":"Fantasy Island","genre_ids":[14,27,878],"title":"Fantasy Island","vote_average":4.8,"overview":"A group of contest winners arrive at an island hotel to live out their dreams, only to find themselves trapped in nightmare scenarios.","release_date":"2020-02-12"},{"popularity":59.43,"vote_count":460,"video":false,"poster_path":"\/1DPUFG6QnGqzpvEaDEv7TaepycM.jpg","id":458897,"adult":false,"backdrop_path":"\/a0xTB1vBxMGt6LGG4N7k1wO9lfL.jpg","original_language":"en","original_title":"Charlie's Angels","genre_ids":[28,12,35],"title":"Charlie's Angels","vote_average":6.4,"overview":"When a systems engineer blows the whistle on a dangerous technology, Charlie's Angels from across the globe are called into action, putting their lives on the line to protect society.","release_date":"2019-11-14"},{"popularity":57.442,"vote_count":17,"video":false,"poster_path":"\/tIpGQ9uuII7QVFF0GHCFTJFfXve.jpg","id":555974,"adult":false,"backdrop_path":"\/tE7SjDwITs333u4fBICqEmCRfgk.jpg","original_language":"en","original_title":"Brahms: The Boy II","genre_ids":[27,9648,53],"title":"Brahms: The Boy II","vote_average":6.6,"overview":"After a family moves into the Heelshire Mansion, their young son soon makes friends with a life-like doll called Brahms.","release_date":"2020-02-20"},{"popularity":49.737,"vote_count":15,"video":false,"poster_path":"\/8WUVHemHFH2ZIP6NWkwlHWsyrEL.jpg","id":338762,"adult":false,"backdrop_path":"\/ocUrMYbdjknu2TwzMHKT9PBBQRw.jpg","original_language":"en","original_title":"Bloodshot","genre_ids":[28,18,14,878],"title":"Bloodshot","vote_average":6.6,"overview":"After he and his wife are murdered, marine Ray Garrison is resurrected by a team of scientists. Enhanced with nanotechnology, he becomes a superhuman, biotech killing machine - Bloodshot. As Ray first trains with fellow super-soldiers, he cannot recall anything from his former life. But when his memories flood back and he remembers the man that killed both him and his wife, he breaks out of the facility to get revenge, only to discover that there's more to the conspiracy than he thought.","release_date":"2020-02-20"},{"popularity":44.167,"vote_count":77,"video":false,"poster_path":"\/xssWHNrOhAeq0EUzHbHqn1SRb5s.jpg","id":548473,"adult":false,"backdrop_path":"\/8keFEE7XPTLEJ4hL67LZQGPHNCo.jpg","original_language":"en","original_title":"Color Out of Space","genre_ids":[27,878],"title":"Color Out of Space","vote_average":6.4,"overview":"The Gardner family moves to a remote farmstead in rural New England to escape the hustle of the 21st century. They are busy adapting to their new life when a meteorite crashes into their front yard, melts into the earth, and infects both the land and the properties of space-time with a strange, otherworldly colour. To their horror, the family discovers this alien force is gradually mutating every life form that it touches—including them.","release_date":"2019-09-24"},{"popularity":40.133,"vote_count":142,"video":false,"poster_path":"\/jNvlqNDnXH8aqBeiBxNNP0wWWO3.jpg","id":522369,"adult":false,"backdrop_path":"\/yjCW0qLgmyBUuv3KwRkuwy6yfmv.jpg","original_language":"en","original_title":"Sorry We Missed You","genre_ids":[18],"title":"Sorry We Missed You","vote_average":7.6,"overview":"From the Director of I Daniel Blake (Ken Loach) comes another hard hitting dose of reality. Ricky and his family have been fighting an uphill struggle against debt since the 2008 financial crash. An opportunity to wrestle back some independence appears with a shiny new van and the chance to run a franchise as a self-employed delivery driver. It's hard work, and his wife's job as a carer is no easier. The family unit is strong but when both are pulled in different directions everything comes to breaking point.","release_date":"2019-10-04"},{"popularity":39.035,"vote_count":106,"video":false,"poster_path":"\/coANk5hxXAAAygxIj69YRoyWMvz.jpg","id":536743,"adult":false,"backdrop_path":"\/MmDgXMjZhD7rSH74mPrQj3uZaI.jpg","original_language":"en","original_title":"Queen & Slim","genre_ids":[80,18,10749],"title":"Queen & Slim","vote_average":7.4,"overview":"While on a forgettable first date together in Ohio, a black man and a black woman are pulled over for a minor traffic infraction. The situation escalates, with sudden and tragic results, when the man kills the police officer in self-defense. Terrified and in fear for their lives, the man, a retail employee, and the woman, a criminal defense lawyer, are forced to go on the run. But the incident is captured on video and goes viral, and the couple unwittingly become a symbol of trauma, terror, grief and pain for people across the country.","release_date":"2019-11-27"},{"popularity":37.624,"vote_count":12984,"video":false,"poster_path":"\/jUFjMoLh8T2CWzHUSjKCojI5SHu.jpg","id":673,"adult":false,"backdrop_path":"\/vbk5CfaAHOjQPSAcYm6AoRRz2Af.jpg","original_language":"en","original_title":"Harry Potter and the Prisoner of Azkaban","genre_ids":[12,14],"title":"Harry Potter and the Prisoner of Azkaban","vote_average":8,"overview":"Harry, Ron and Hermione return to Hogwarts for another magic-filled year. Harry comes face to face with danger yet again, this time in the form of escaped convict, Sirius Black—and turns to sympathetic Professor Lupin for help.","release_date":"2004-05-31"},{"popularity":36.542,"vote_count":303,"video":false,"poster_path":"\/jtrhTYB7xSrJxR1vusu99nvnZ1g.jpg","id":522627,"adult":false,"backdrop_path":"\/9Qfawg9WT3cSbBXQgDRuWbYS9lj.jpg","original_language":"en","original_title":"The Gentlemen","genre_ids":[28,35,80],"title":"The Gentlemen","vote_average":7.9,"overview":"American expat Mickey Pearson has built a highly profitable marijuana empire in London. When word gets out that he’s looking to cash out of the business forever it triggers plots, schemes, bribery and blackmail in an attempt to steal his domain out from under him.","release_date":"2019-12-03"},{"popularity":33.864,"vote_count":20,"video":false,"poster_path":"\/sm8iVzA7kRp0d4BSIsgXjsSBMKV.jpg","id":556678,"adult":false,"backdrop_path":"\/l111ATIHwHQPL9dHKV5Lix85Azq.jpg","original_language":"en","original_title":"Emma.","genre_ids":[35,18],"title":"Emma.","vote_average":7.6,"overview":"In 1800s England, a well-meaning but selfish young woman meddles in the love lives of her friends.","release_date":"2020-02-14"},{"popularity":33.617,"vote_count":2,"video":false,"poster_path":"\/sN8sfiGZV6PDP7kafMqrSuKUtOM.jpg","id":457335,"adult":false,"backdrop_path":"\/lEolXbxv14PdZFTw7jZMJQn4lMK.jpg","original_language":"en","original_title":"Guns Akimbo","genre_ids":[28,35],"title":"Guns Akimbo","vote_average":7.5,"overview":"An ordinary guy suddenly finds himself forced to fight a gladiator-like battle for a dark website that streams the violence for viewers. Miles must fight heavily armed Nix and also save his kidnapped ex-girlfriend.","release_date":"2020-02-27"},{"popularity":33.549,"vote_count":7,"video":false,"poster_path":"\/3VqDLgKLfNYSQYEGC5sjGhcPhn7.jpg","id":508439,"adult":false,"backdrop_path":"\/bcT8CaBIj086WVD7K529h78eujb.jpg","original_language":"en","original_title":"Onward","genre_ids":[12,16,35,14,10751],"title":"Onward","vote_average":7.4,"overview":"In a suburban fantasy world, two teenage elf brothers embark on an extraordinary quest to discover if there is still a little magic left out there.","release_date":"2020-02-29"}],"page":1,"total_results":445,"dates":{"maximum":"2020-03-19","minimum":"2020-02-25"},"total_pages":23}